…
``` r
by_teams_year <- salaries %>%
  group_by(teamID, yearID) %>%
  summarize(payroll =  sum(salary, na.rm = TRUE))
```

    ## `summarise()` regrouping output by 'teamID' (override with `.groups` argument)

``` r
by_teams_year
```

    ## # A tibble: 758 x 3
    ## # Groups:   teamID [35]
    ##    teamID yearID   payroll
    ##    <fct>   <int>     <int>
    ##  1 ANA      1997  31135472
    ##  2 ANA      1998  41281000
    ##  3 ANA      1999  55388166
    ##  4 ANA      2000  51464167
    ##  5 ANA      2001  47535167
    ##  6 ANA      2002  61721667
    ##  7 ANA      2003  79031667
    ##  8 ANA      2004 100534667
    ##  9 ARI      1998  32347000
    ## 10 ARI      1999  68703999
    ## # … with 748 more rows
…
``` r
wpd_dataset <- simple_joined %>%
  group_by(yearID, teamID) %>% 
  summarize(wpd = W/payroll)
```

    ## `summarise()` regrouping output by 'yearID' (override with `.groups` argument)

``` r
wpd_dataset
```

    ## # A tibble: 758 x 3
    ## # Groups:   yearID [26]
    ##    yearID teamID        wpd
    ##     <int> <fct>       <dbl>
    ##  1   1990 ATL    0.00000447
    ##  2   1990 BAL    0.00000785
    ##  3   1990 BOS    0.00000428
    ##  4   1990 CAL    0.00000368
    ##  5   1990 CHA    0.00000990
    ##  6   1990 CHN    0.00000565
    ##  7   1990 CIN    0.00000633
    ##  8   1990 CLE    0.00000532
    ##  9   1990 DET    0.00000449
    ## 10   1990 HOU    0.00000409
    ## # … with 748 more rows
…
``` r
avg_wpd_dataset <- wpd_dataset %>%
  group_by(yearID) %>% 
  summarize(avg_wpd = mean(wpd))
```

    ## `summarise()` ungrouping output (override with `.groups` argument)

``` r
avg_wpd_dataset
```

    ## # A tibble: 26 x 2
    ##    yearID    avg_wpd
    ##     <int>      <dbl>
    ##  1   1990 0.00000502
    ##  2   1991 0.00000371
    ##  3   1992 0.00000296
    ##  4   1993 0.00000276
    ##  5   1994 0.00000184
    ##  6   1995 0.00000230
    ##  7   1996 0.00000258
    ##  8   1997 0.00000233
    ##  9   1998 0.00000219
    ## 10   1999 0.00000191
    ## # … with 16 more rows
…
Let’s join it with our “avg\_wpd\_dataset”. Use the left\_join()
function once again. Call this new dataset “calculations”. (5 pts.)

``` r
calculations <- left_join(avg_wpd_dataset, simple_joined, by = NULL)
```

    ## Joining, by = "yearID"

``` r
calculations
```

    ## # A tibble: 758 x 5
    ##    yearID    avg_wpd teamID     W  payroll
    ##     <int>      <dbl> <fct>  <int>    <int>
    ##  1   1990 0.00000502 ATL       65 14555501
    ##  2   1990 0.00000502 BAL       76  9680084
    ##  3   1990 0.00000502 BOS       88 20558333
    ##  4   1990 0.00000502 CAL       80 21720000
    ##  5   1990 0.00000502 CHA       94  9491500
    ##  6   1990 0.00000502 CHN       77 13624000
    ##  7   1990 0.00000502 CIN       91 14370000
    ##  8   1990 0.00000502 CLE       77 14487000
    ##  9   1990 0.00000502 DET       79 17593238
    ## 10   1990 0.00000502 HOU       75 18330000
    ## # … with 748 more rows
…
We’re almost done\! All that’s left for us to do is compare our
calculations for expected number of wins with the actual number of wins.

##### Step 4

Use the mutate() function to add a new column to your dataset with the
name “residual\_wins” that equals “W” - “expected\_wins”. (5 pts.)

``` r
calculations <- mutate(calculations, residual_wins = W - expected_wins)

calculations
```

    ## # A tibble: 758 x 7
    ##    yearID    avg_wpd teamID     W  payroll expected_wins residual_wins
    ##     <int>      <dbl> <fct>  <int>    <int>         <dbl>         <dbl>
    ##  1   1990 0.00000502 ATL       65 14555501          73.0         -8.01
    ##  2   1990 0.00000502 BAL       76  9680084          48.6         27.4 
    ##  3   1990 0.00000502 BOS       88 20558333         103.         -15.1 
    ##  4   1990 0.00000502 CAL       80 21720000         109.         -28.9 
    ##  5   1990 0.00000502 CHA       94  9491500          47.6         46.4 
    ##  6   1990 0.00000502 CHN       77 13624000          68.3          8.67
    ##  7   1990 0.00000502 CIN       91 14370000          72.1         18.9 
    ##  8   1990 0.00000502 CLE       77 14487000          72.7          4.34
    ##  9   1990 0.00000502 DET       79 17593238          88.2         -9.24
    ## 10   1990 0.00000502 HOU       75 18330000          91.9        -16.9 
    ## # … with 748 more rows
…
